C1,C2,Rate
AED,AUD,0.2663
AED,CAD,0.2707
AED,CHF,0.2545
AED,DKK,1.495
AED,EUR,0.2006
AED,GBP,0.1747
AED,INR,12.132
AED,JPY,22.116
AED,NZD,0.3495
AED,PKR,23.305
AED,USD,0.2723
AED,ZAR,1.802
ALL,GBP,0.0061
ARS,AUD,0.2424
ARS,BRL,0.4114
ARS,CAD,0.2475
ARS,CHF,0.231
ARS,EUR,0.1852
ARS,GBP,0.1589
ARS,HKD,1.928
ARS,JPY,20.127
ARS,MXN,3.0735
ARS,SGD,0.3185
ARS,USD,0.248
AUD,ARS,4.0032
AUD,BRL,1.6493
AUD,CAD,1.0206
AUD,CHF,0.9555
AUD,CNY,6.5876
AUD,CZK,19.057
AUD,DKK,5.6978
AUD,EUR,0.764
AUD,FJD,1.8411
AUD,GBP,0.6553
AUD,HKD,7.9504
AUD,HUF,211.6
AUD,IDR,9185.4
AUD,ILS,3.6252
AUD,INR,45.569
AUD,JPY,83.012
AUD,KRW,1124.0
AUD,MXN,12.594
AUD,MYR,3.0925
AUD,NOK,5.9372
AUD,NZD,1.3094
AUD,PKR,87.721
AUD,PLN,3.0188
AUD,SEK,6.8534
AUD,SGD,1.3121
AUD,THB,30.117
AUD,TWD,28.867
AUD,USD,1.0226
AUD,ZAR,6.7568
BDT,GBP,0.009
BDT,JPY,1.1312
BGN,CNY,4.4081
BGN,DKK,3.792
BHD,EUR,1.932
BHD,PKR,227.04
BND,GBP,0.4952
BRL,ARS,2.3586
BRL,AUD,0.5796
BRL,CAD,0.5884
BRL,CHF,0.5515
BRL,EUR,0.4403
BRL,HKD,4.5819
BRL,JPY,48.824
BRL,MXN,7.306
BRL,RUB,18.02
BRL,SEK,3.9505
BRL,SGD,0.7559
BRL,USD,0.6017
BRL,ZAR,3.9065
BWP,CHF,0.1423
BWP,EUR,0.1136
BWP,GBP,0.098
BWP,USD,0.1521
BWP,ZAR,1.0234
CAD,AED,3.6774
CAD,ARS,3.9202
CAD,AUD,0.979
CAD,BRL,1.6247
CAD,CHF,0.9352
CAD,CNY,6.451
CAD,DKK,5.5818
CAD,EUR,0.7481
CAD,GBP,0.6414
CAD,HKD,7.7862
CAD,IDR,8995.0
CAD,ILS,3.5501
CAD,INR,44.806
CAD,JPY,81.24
CAD,KRW,1100.7
CAD,KWD,0.2818
CAD,MXN,12.333
CAD,MYR,3.0284
CAD,NOK,5.8146
CAD,NZD,1.2841
CAD,PKR,86.16
CAD,SEK,6.7221
CAD,SGD,1.2848
CAD,THB,29.492
CAD,TWD,28.435
CAD,USD,1.0012
CAD,ZAR,6.6172
CHF,AED,3.9297
CHF,ARS,4.2
CHF,AUD,1.0453
CHF,BGN,1.5658
CHF,BRL,1.7334
CHF,BWP,6.7705
CHF,CAD,1.071
CHF,CNY,6.9113
CHF,CZK,19.977
CHF,DKK,5.9668
CHF,EUR,0.7985
CHF,GBP,0.6872
CHF,HKD,8.3178
CHF,HUF,222.13
CHF,IDR,9636.8
CHF,ILS,3.7916
CHF,INR,47.686
CHF,ISK,122.57
CHF,JPY,86.77
CHF,KRW,1179.3
CHF,LVL,0.5666
CHF,MXN,13.172
CHF,MYR,3.2444
CHF,NOK,6.2204
CHF,NZD,1.3709
CHF,PLN,3.1644
CHF,SEK,7.1726
CHF,SGD,1.3765
CHF,SZL,6.9408
CHF,THB,31.597
CHF,TRY,1.6502
CHF,TWD,30.337
CHF,USD,1.0692
CHF,ZAR,7.0894
CLP,GBP,0.0014
CNY,AUD,0.1494
CNY,BGN,0.2168
CNY,CAD,0.1514
CNY,CHF,0.1417
CNY,DKK,0.8263
CNY,EUR,0.1109
CNY,GBP,0.0982
CNY,HKD,1.1796
CNY,JPY,12.046
CNY,NZD,0.1968
CNY,USD,0.1513
CNY,ZAR,1.0026
COP,DKK,0.0028
CRC,GBP,0.0013
CYP,ZAR,15.108
CZK,DKK,0.2974
CZK,EUR,0.0399
CZK,JPY,4.3128
CZK,MXN,0.6621
CZK,NOK,0.311
CZK,SEK,0.3585
DJF,GBP,0.0036
DKK,AED,0.6501
DKK,BGN,0.261
DKK,BRL,0.3614
DKK,CHF,16.682
DKK,CNY,1.1565
DKK,COP,338.93
DKK,CZK,3.343
DKK,EEK,2.0964
DKK,EUR,0.1341
DKK,GBP,0.1148
DKK,HKD,1.3959
DKK,HUF,37.12
DKK,INR,7.9808
DKK,ISK,20.575
DKK,JPY,14.535
DKK,LVL,0.0951
DKK,MXN,2.2108
DKK,MYR,0.5429
DKK,NOK,1.0443
DKK,NZD,0.2299
DKK,PHP,7.6625
DKK,PLN,0.5295
DKK,SEK,1.2025
DKK,SGD,0.2297
DKK,TRY,0.2769
DKK,TWD,5.0979
DKK,UAH,1.4119
DKK,USD,0.1795
DKK,ZAR,1.1869
DOP,GBP,0.0172
EEK,DKK,0.4759
EEK,LVL,0.0453
EGP,JPY,13.75
EGP,PKR,14.784
ETB,GBP,0.0383
EUR,AED,4.845
EUR,AFN,56.6
EUR,ALL,136.33
EUR,ARS,5.2386
EUR,AUD,1.3083
EUR,BAM,1.9458
EUR,BBD,2.6267
EUR,BDT,92.654
EUR,BGN,1.9456
EUR,BHD,0.4916
EUR,BIF,1604.12
EUR,BND,1.6912
EUR,BOB,9.1818
EUR,BRL,2.1711
EUR,BSD,1.3314
EUR,BWP,8.4801
EUR,BYR,3966.0
EUR,BZD,2.5932
EUR,CAD,1.3357
EUR,CHF,1.2508
EUR,CLP,612.28
EUR,CNY,8.6205
EUR,COP,2526.0
EUR,CRC,665.68
EUR,CUP,1.308
EUR,CVE,108.25
EUR,CZK,24.992
EUR,DJF,230.78
EUR,DKK,7.4521
EUR,DOP,49.221
EUR,DZD,97.893
EUR,EEK,15.6264
EUR,EGP,7.619
EUR,ETB,22.0007
EUR,FJD,2.4384
EUR,GBP,0.8571
EUR,GHS,1.9638
EUR,GMD,36.754
EUR,GNF,9345.4
EUR,GTQ,10.527
EUR,HKD,10.4047
EUR,HNL,24.788
EUR,HRK,7.2327
EUR,HTG,52.2
EUR,HUF,276.35
EUR,IDR,12020.0
EUR,ILS,4.7367
EUR,INR,59.49
EUR,IQD,1535.2
EUR,IRR,13608.614
EUR,ISK,153.37
EUR,JMD,112.268
EUR,JOD,0.9273
EUR,JPY,108.615
EUR,KES,106.64
EUR,KHR,5306.9
EUR,KRW,1470.9
EUR,KWD,0.3653
EUR,KYD,1.0841
EUR,KZT,194.23
EUR,LAK,10531.1
EUR,LBP,2007.0
EUR,LKR,144.98
EUR,LSL,8.6549
EUR,LTL,3.4509
EUR,LVL,0.7068
EUR,LYD,1.6416
EUR,MAD,10.848
EUR,MDL,15.955
EUR,MKD,61.715
EUR,MMK,8.442
EUR,MOP,10.5289
EUR,MRO,371.75
EUR,MUR,39.55
EUR,MVR,16.848
EUR,MWK,198.76
EUR,MXN,16.292
EUR,MYR,4.0468
EUR,NAD,8.6549
EUR,NGN,200.6
EUR,NIO,28.78
EUR,NOK,7.77
EUR,NPR,93.938
EUR,NZD,1.715
EUR,OMR,0.5013
EUR,PAB,1.313
EUR,PEN,3.6761
EUR,PGK,3.2793
EUR,PHP,57.112
EUR,PKR,114.85
EUR,PLN,3.947
EUR,PYG,6086.6
EUR,QAR,4.7232
EUR,RON,4.1837
EUR,RSD,104.971
EUR,RUB,39.924
EUR,RWF,777.3
EUR,SAR,5.016
EUR,SCR,16.227
EUR,SDD,312.37
EUR,SEK,8.969
EUR,SGD,1.7185
EUR,SKK,30.575
EUR,SOS,2101.4
EUR,STD,24382.7
EUR,SVC,11.47
EUR,SYP,61.302
EUR,SZL,8.6933
EUR,THB,39.41
EUR,TND,1.9108
EUR,TRY,2.0642
EUR,TTD,8.3485
EUR,TWD,37.997
EUR,TZS,1984.22
EUR,UAH,10.5233
EUR,UGX,3045.9
EUR,USD,1.3384
EUR,UYU,26.033
EUR,UZS,2159.89
EUR,VEF,5.752
EUR,VND,25695.0
EUR,XAF,642.957
EUR,XOF,642.957
EUR,XPF,116.86
EUR,ZAR,8.8426
EUR,ZMK,6324.1
FJD,GBP,0.3539
GBP,AED,5.725
GBP,ALL,158.07
GBP,ARS,6.2
GBP,AUD,1.5247
GBP,BDT,107.45
GBP,BGN,2.2807
GBP,BHD,0.5701
GBP,BIF,1860.0
GBP,BND,1.9613
GBP,BRL,2.595
GBP,BWP,9.832
GBP,CAD,1.5568
GBP,CHF,1.4584
GBP,CLP,730.5
GBP,CNY,10.047
GBP,COP,2929.9
GBP,CRC,792.46
GBP,CZK,29.039
GBP,DJF,267.59
GBP,DKK,8.697
GBP,DOP,58.3
GBP,DZD,113.51
GBP,EEK,18.212
GBP,EGP,8.8796
GBP,ETB,25.51
GBP,EUR,1.1641
GBP,FJD,2.8003
GBP,GMD,42.616
GBP,GTQ,12.508
GBP,HKD,12.117
GBP,HNL,29.485
GBP,HRK,8.3862
GBP,HTG,62.027
GBP,HUF,323.0
GBP,IDR,14009.0
GBP,ILS,5.5313
GBP,INR,69.449
GBP,IQD,1780.6
GBP,IRR,15784.0
GBP,ISK,178.04
GBP,JMD,130.21
GBP,JOD,1.0753
GBP,JPY,126.6
GBP,KES,123.6
GBP,KRW,1714.2
GBP,KWD,0.4236
GBP,KZT,225.21
GBP,LBP,2342.6
GBP,LKR,170.71
GBP,LTL,4.0218
GBP,LVL,0.8237
GBP,MAD,12.578
GBP,MUR,45.86
GBP,MWK,230.4
GBP,MXN,19.216
GBP,MYR,4.7163
GBP,NGN,237.42
GBP,NIO,34.142
GBP,NZD,1.9999
GBP,OMR,0.5813
GBP,PEN,4.3803
GBP,PGK,3.803
GBP,PHP,66.233
GBP,PKR,133.9
GBP,PLN,4.609
GBP,QAR,5.6749
GBP,RON,4.8509
GBP,RUB,46.291
GBP,SAR,5.8551
GBP,SCR,18.815
GBP,SEK,10.4795
GBP,SGD,2.001
GBP,SKK,35.633
GBP,SZL,10.08
GBP,THB,45.7
GBP,TND,2.2155
GBP,TRY,2.4074
GBP,TTD,9.683
GBP,TWD,45.64
GBP,TZS,2057.0
GBP,UAH,12.202
GBP,UGX,3151.0
GBP,USD,1.561
GBP,VND,29798.0
GBP,XAF,745.63
GBP,XPF,139.26
GBP,ZAR,10.3059
GBP,ZMK,7332.0
GHS,EUR,0.4966
GHS,USD,0.6648
GMD,GBP,0.0226
GTQ,GBP,0.0799
HKD,ARS,0.5033
HKD,AUD,0.1257
HKD,BRL,0.2086
HKD,CAD,0.1283
HKD,CHF,0.1201
HKD,CNY,0.8282
HKD,DKK,0.7158
HKD,EUR,0.096
HKD,GBP,0.0823
HKD,IDR,1154.8
HKD,INR,5.7327
HKD,JPY,10.438
HKD,KRW,141.31
HKD,MXN,1.5835
HKD,MYR,0.3888
HKD,NZD,0.1649
HKD,PKR,11.012
HKD,PLN,0.3792
HKD,SEK,0.8617
HKD,SGD,0.165
HKD,THB,3.7863
HKD,TWD,3.6516
HKD,USD,0.1286
HKD,ZAR,0.8495
HNL,GBP,0.0339
HTG,GBP,0.0161
HUF,CHF,0.0045
HUF,DKK,0.0265
HUF,EUR,0.0036
HUF,PLN,0.0142
IDR,CAD,1.1106
IDR,CHF,0.0104
IDR,CNY,0.0717
IDR,EUR,0.0083
IDR,GBP,0.0071
IDR,INR,0.005
IDR,JPY,0.9032
IDR,KRW,12.229
IDR,MYR,0.0337
IDR,NZD,0.0143
IDR,SGD,0.0001
IDR,THB,0.3277
IDR,TWD,0.3159
IDR,USD,0.0111
IDR,ZAR,0.0735
ILS,AUD,0.2751
ILS,CAD,0.2809
ILS,CHF,0.263
ILS,JOD,0.2003
ILS,JPY,22.838
ILS,SEK,1.888
INR,AUD,0.022
INR,CAD,0.0225
INR,CHF,0.021
INR,CNY,0.1449
INR,EUR,0.0141
INR,GBP,0.0144
INR,HKD,0.1748
INR,JPY,1.825
INR,KRW,24.717
INR,MYR,0.068
INR,NZD,0.0288
INR,PKR,1.9204
INR,SEK,0.1507
INR,THB,0.6623
INR,TWD,0.6353
INR,USD,0.0224
INR,ZAR,0.1486
IQD,GBP,0.0005
IRR,JPY,0.0077
ISK,CHF,0.0049
ISK,DKK,0.0289
ISK,GBP,0.0033
ISK,SEK,0.0345
JMD,GBP,0.0074
JOD,ILS,4.9632
JPY,AED,0.0452
JPY,ARS,0.0482
JPY,AUD,0.012
JPY,BRL,0.0205
JPY,CAD,0.0123
JPY,CHF,1.1507
JPY,CNY,0.0793
JPY,CZK,0.2287
JPY,DKK,0.0684
JPY,EUR,0.0092
JPY,GBP,0.0079
JPY,HKD,0.0958
JPY,IDR,110.62
JPY,ILS,0.0437
JPY,INR,0.5486
JPY,KRW,13.537
JPY,LVL,0.6523
JPY,MXN,0.1517
JPY,MYR,0.0372
JPY,NOK,0.0717
JPY,NZD,0.0158
JPY,PKR,1.0556
JPY,PLN,0.0363
JPY,RUB,0.3762
JPY,SEK,8.2545
JPY,THB,0.3627
JPY,TWD,0.349
JPY,USD,0.0123
JPY,ZAR,0.0815
KRW,AUD,0.0872
KRW,CAD,0.089
KRW,CHF,0.0831
KRW,CNY,0.5744
KRW,EUR,0.0653
KRW,GBP,0.0571
KRW,HKD,0.6932
KRW,IDR,8.0086
KRW,INR,3.9636
KRW,JPY,7.237
KRW,MYR,0.2696
KRW,NZD,0.1143
KRW,SEK,0.006
KRW,SGD,0.0011
KRW,THB,2.6258
KRW,TWD,2.5317
KRW,USD,0.0875
KRW,ZAR,0.5892
KWD,GBP,2.2266
KWD,PKR,303.76
KZT,GBP,0.0043
LTL,LVL,0.2053
MAD,GBP,0.0748
MUR,GBP,0.0208
MWK,GBP,0.0042
MXN,ARS,0.3157
MXN,AUD,0.079
MXN,BRL,0.1309
MXN,CAD,0.0807
MXN,CHF,0.0755
MXN,CZK,1.5055
MXN,DKK,0.45
MXN,EUR,0.0604
MXN,GBP,0.0518
MXN,HKD,0.6283
MXN,JPY,6.559
MXN,SGD,0.1037
MXN,USD,0.0808
MXN,ZAR,0.5364
MYR,AUD,0.317
MYR,CAD,0.3237
MYR,CHF,0.303
MYR,CNY,2.0889
MYR,DKK,1.7719
MYR,EUR,0.2377
MYR,GBP,0.2077
MYR,HKD,2.5213
MYR,IDR,2912.7
MYR,INR,14.517
MYR,JPY,26.323
MYR,KRW,356.42
MYR,NZD,0.4158
MYR,PKR,27.832
MYR,SGD,0.416
MYR,THB,9.5499
MYR,TWD,9.2075
MYR,USD,0.3183
MYR,ZAR,2.1427
NGN,GBP,0.0042
NGN,JPY,0.5333
NIO,GBP,0.0293
NOK,CHF,15.971
NOK,DKK,0.955
NOK,EUR,0.128
NOK,GBP,0.1098
NOK,INR,7.6341
NOK,JPY,13.903
NOK,LVL,0.091
NOK,SEK,1.1481
NOK,USD,0.1719
NOK,ZAR,1.1355
NZD,AED,2.8125
NZD,AUD,0.7631
NZD,CAD,0.7776
NZD,CHF,0.7271
NZD,CNY,5.0283
NZD,CZK,14.483
NZD,DKK,4.3453
NZD,EUR,0.5813
NZD,GBP,0.4999
NZD,HKD,6.069
NZD,HUF,161.08
NZD,IDR,7011.2
NZD,INR,34.719
NZD,JPY,63.289
NZD,KRW,857.96
NZD,MYR,2.3605
NZD,PKR,66.81
NZD,PLN,2.2978
NZD,SEK,5.2315
NZD,SGD,1.0015
NZD,THB,22.988
NZD,TWD,22.054
NZD,USD,0.7792
NZD,ZAR,5.1578
OMR,GBP,1.6293
OMR,PKR,222.39
PEN,GBP,0.2282
PGK,GBP,0.2507
PHP,DKK,0.1248
PHP,GBP,0.0144
PHP,JPY,1.8235
PHP,USD,0.0229
PKR,GBP,0.0075
PKR,JPY,0.9451
PKR,ZAR,0.0769
PLN,DKK,1.8719
PLN,EUR,0.2511
PLN,HUF,69.979
PLN,JPY,27.288
PLN,NOK,1.9639
PLN,SEK,2.2634
QAR,GBP,0.1762
QAR,PKR,23.51
QAR,ZAR,1.8145
RON,GBP,0.1967
RUB,GBP,0.0206
RUB,JPY,2.6562
RUB,LVL,0.017
RUB,USD,0.0319
SAR,PKR,22.833
SCR,GBP,0.0521
SEK,AUD,0.1455
SEK,CAD,0.1485
SEK,CHF,13.83
SEK,CZK,2.7812
SEK,DKK,0.8278
SEK,EUR,0.1112
SEK,GBP,0.0953
SEK,ILS,0.5282
SEK,INR,6.6206
SEK,ISK,17.105
SEK,JPY,12.077
SEK,LVL,0.0789
SEK,NOK,0.8675
SEK,ZAR,0.9862
SGD,ARS,3.0468
SGD,AUD,0.7609
SGD,BRL,1.2648
SGD,CAD,0.7769
SGD,CHF,0.7272
SGD,CNY,5.0137
SGD,DKK,4.3289
SGD,EUR,0.5808
SGD,GBP,0.4992
SGD,HKD,6.0514
SGD,IDR,6990.8
SGD,INR,34.712
SGD,JPY,63.08
SGD,KRW,855.47
SGD,MXN,9.5945
SGD,MYR,2.3536
SGD,NZD,0.9989
SGD,PKR,66.807
SGD,PLN,2.2956
SGD,SEK,5.2164
SGD,THB,22.959
SGD,TWD,22.65
SGD,USD,0.7792
SGD,ZAR,5.1592
SZL,CHF,0.1377
SZL,EUR,0.11
SZL,GBP,0.0948
SZL,USD,0.1472
THB,AUD,0.0325
THB,CAD,0.0332
THB,CHF,0.0311
THB,CNY,0.2144
THB,EUR,0.0244
THB,GBP,0.0213
THB,HKD,0.2588
THB,IDR,298.93
THB,INR,1.4851
THB,JPY,2.7015
THB,KRW,36.58
THB,MYR,0.1006
THB,NZD,0.0429
THB,PKR,2.8558
THB,SGD,0.0427
THB,TWD,0.945
THB,USD,0.0326
THB,ZAR,0.2199
TND,GBP,0.4439
TRY,CHF,0.6039
TRY,DKK,3.5986
TRY,JPY,52.32
TRY,ZAR,4.2855
TTD,GBP,0.0997
TWD,AUD,0.0336
TWD,CAD,0.0343
TWD,CHF,0.0321
TWD,CNY,0.2211
TWD,DKK,0.1864
TWD,GBP,0.022
TWD,HKD,0.2668
TWD,IDR,308.22
TWD,INR,1.5432
TWD,JPY,2.785
TWD,KRW,37.718
TWD,MYR,0.1038
TWD,NZD,0.0438
TWD,PKR,2.9295
TWD,SEK,0.23
TWD,SGD,0.044
TWD,THB,1.0106
TWD,USD,0.0343
TWD,ZAR,0.2268
TZS,ZAR,0.0044
UAH,DKK,0.6899
USD,AED,3.6729
USD,ALL,101.83
USD,AMD,363.44
USD,ARS,3.9123
USD,AUD,0.9767
USD,BDT,69.209
USD,BGN,1.4636
USD,BHD,0.377
USD,BIF,1205.0
USD,BMD,1.0
USD,BND,1.2633
USD,BOB,6.8585
USD,BRL,1.66
USD,BWP,6.3343
USD,BZD,1.937
USD,CAD,0.9972
USD,CHF,0.9341
USD,CLP,467.75
USD,CNY,6.5916
USD,COP,1915.0
USD,CRC,497.24
USD,CUP,0.977
USD,CVE,82.45
USD,CZK,18.579
USD,DJF,175.8
USD,DKK,5.5653
USD,DOP,37.2
USD,DZD,74.0
USD,EEK,11.67
USD,EGP,5.6901
USD,ETB,16.434
USD,EUR,0.7467
USD,FJD,1.8188
USD,GBP,0.6404
USD,GEL,1.765
USD,GHS,1.484
USD,GMD,26.25
USD,GNF,6900.0
USD,GTQ,7.8637
USD,HKD,7.7725
USD,HNL,18.516
USD,HRK,5.4965
USD,HTG,38.991
USD,HUF,206.04
USD,IDR,8985.0
USD,ILS,3.543
USD,INR,44.56
USD,IQD,1166.5
USD,IRR,10300.0
USD,ISK,114.78
USD,JOD,0.7035
USD,JPY,81.11
USD,KES,80.5
USD,KHR,4030.0
USD,KMF,367.8
USD,KRW,1098.5
USD,KWD,0.2812
USD,KZT,145.08
USD,LAK,8015.0
USD,LBP,1498.0
USD,LKR,108.3
USD,LSL,6.5775
USD,LTL,2.5772
USD,LVL,0.5278
USD,LYD,1.251
USD,MAD,8.325
USD,MDL,11.918
USD,MKD,46.099
USD,MMK,6.3061
USD,MOP,7.864
USD,MRO,281.0
USD,MUR,29.55
USD,MVR,12.62
USD,MWK,151.0
USD,MXN,12.3088
USD,MYR,3.0223
USD,NAD,6.5775
USD,NGN,149.86
USD,NIO,21.5
USD,NOK,5.8083
USD,NPR,70.168
USD,NZD,1.2799
USD,OMR,0.3745
USD,PAB,0.9808
USD,PEN,2.805
USD,PGK,2.4495
USD,PHP,45.51
USD,PKR,85.6
USD,PLN,2.9477
USD,PYG,4546.5
USD,QAR,3.6408
USD,RON,3.2208
USD,RSD,78.41
USD,RUB,30.567
USD,RWF,586.0
USD,SAR,3.75
USD,SCR,12.0
USD,SDD,246.62
USD,SEK,6.7036
USD,SGD,1.2821
USD,SKK,22.834
USD,SOS,1555.0
USD,STD,18700.0
USD,SVC,8.5662
USD,SYP,45.79
USD,SZL,6.5775
USD,THB,29.4678
USD,TND,1.435
USD,TRY,1.5409
USD,TWD,29.165
USD,TZS,1482.1
USD,UAH,7.86
USD,UYU,19.446
USD,UZS,1613.4
USD,VEF,4.29
USD,VND,19460.0
USD,XAF,480.27
USD,XOF,480.27
USD,XPF,89.2
USD,YER,213.0
USD,ZAR,6.6188
USD,ZMK,4723.9
VEF,EUR,0.1737
VEF,USD,0.232
VND,JPY,0.0041
VND,XAF,0.0246
XAG,AUD,30.14
XAG,CAD,30.84
XAG,CHF,28.8021
XAG,EUR,23.09
XAG,GBP,19.76
XAG,INR,1374.89
XAG,TRY,47.73
XAG,USD,30.856
XAG,ZAR,204.51
XAU,AUD,1387.8
XAU,CAD,1418.4
XAU,CHF,1327.03
XAU,EUR,1061.4
XAU,GBP,909.5
XAU,INR,63293.0
XAU,TRY,2187.11
XAU,USD,1420.35
XAU,ZAR,9414.4
XPD,EUR,592.0
XPD,USD,790.0
XPF,GBP,0.0071
XPT,EUR,1318.0
XPT,USD,1760.0
ZAR,AED,0.5531
ZAR,AUD,0.1475
ZAR,BWP,0.9707
ZAR,CAD,0.1506
ZAR,CHF,0.1409
ZAR,CNY,0.9717
ZAR,CYP,0.0658
ZAR,DKK,0.8384
ZAR,EUR,0.1123
ZAR,GBP,0.0966
ZAR,HKD,1.1728
ZAR,IDR,1354.8
ZAR,INR,6.7103
ZAR,KRW,165.79
ZAR,MYR,0.45
ZAR,NOK,0.8766
ZAR,NZD,0.1935
ZAR,PHP,6.5621
ZAR,PKR,12.918
ZAR,SEK,1.0095
ZAR,SGD,0.1935
ZAR,THB,4.4421
ZAR,TRY,0.2326
ZAR,TWD,4.2742
ZAR,USD,0.1506
ZMK,ZAR,0.0014
AED,INR,12.202
AED,ZAR,1.7914
ARS,AUD,0.2476
ARS,BRL,0.4181
ARS,CAD,0.2512
ARS,CHF,0.236
ARS,EUR,0.1894
ARS,GBP,0.1625
ARS,HKD,1.9653
ARS,JPY,20.526
ARS,MXN,3.1127
ARS,SGD,0.3243
ARS,USD,0.2528
AUD,ARS,4.0325
AUD,CAD,1.0143
AUD,CHF,0.9524
AUD,CNY,6.6857
AUD,CZK,19.117
AUD,DKK,5.6977
AUD,EUR,0.7644
AUD,GBP,0.6557
AUD,HKD,7.9396
AUD,HUF,212.21
AUD,IDR,9023.7
AUD,ILS,3.611
AUD,JPY,82.881
AUD,KRW,1146.96
AUD,MXN,12.5965
AUD,MYR,3.1277
AUD,NOK,5.9523
AUD,NZD,1.313
AUD,PLN,3.0234
AUD,SEK,6.8536
AUD,SGD,1.3083
AUD,THB,30.394
AUD,USD,1.0214
AUD,ZAR,6.7284
BGN,CNY,4.4675
BRL,ARS,2.3876
BRL,ZAR,3.9853
BWP,ZAR,1.0188
CAD,AED,3.6951
CAD,ARS,3.9735
CAD,AUD,0.9847
CAD,CHF,0.9383
CAD,CNY,6.5883
CAD,EUR,0.7537
CAD,GBP,0.6464
CAD,HKD,7.8249
CAD,IDR,8891.7
CAD,ILS,3.5588
CAD,JPY,81.67
CAD,KRW,1129.67
CAD,KWD,0.282
CAD,MXN,12.412
CAD,MYR,3.0823
CAD,NOK,5.8661
CAD,NZD,1.2942
CAD,SGD,1.2904
CAD,THB,29.951
CAD,USD,1.0058
CAD,ZAR,6.6325
CHF,ARS,4.2308
CHF,AUD,1.0486
CHF,BGN,1.5683
CHF,CAD,1.0645
CHF,CNY,7.014
CHF,CZK,20.067
CHF,DKK,5.979
CHF,EUR,0.8021
CHF,GBP,0.6882
CHF,HKD,8.3259
CHF,HUF,222.659
CHF,IDR,9466.2
CHF,ILS,3.7886
CHF,JPY,86.96
CHF,KRW,1203.17
CHF,MXN,13.218
CHF,MYR,3.2814
CHF,NOK,6.2461
CHF,NZD,1.3781
CHF,PLN,3.1733
CHF,SEK,7.1937
CHF,SGD,1.3734
CHF,THB,31.891
CHF,TRY,1.6538
CHF,USD,1.0724
CHF,ZAR,7.0664
CLP,GBP,0.0014
CNY,HKD,1.1851
CNY,JPY,12.346
CNY,ZAR,0.9967
CRC,GBP,0.0013
CYP,ZAR,15.036
CZK,DKK,0.2968
CZK,EUR,0.0398
CZK,JPY,4.311
CZK,MXN,0.6545
CZK,SEK,0.3574
DKK,CNY,1.1723
DKK,CZK,3.351
DKK,EEK,2.0963
DKK,EUR,0.1341
DKK,GBP,0.115
DKK,HKD,1.3926
DKK,HUF,37.227
DKK,JPY,14.5353
DKK,MXN,2.208
DKK,MYR,0.5485
DKK,NZD,0.2303
DKK,PLN,0.5297
DKK,SGD,0.2294
DKK,TRY,0.2764
DKK,USD,0.1792
DKK,ZAR,1.1753
DOP,GBP,0.0171
EEK,DKK,0.4759
EUR,AUD,1.3073
EUR,CAD,1.3269
EUR,CHF,1.2452
EUR,CZK,25.0247
EUR,DKK,7.4532
EUR,GBP,0.8577
EUR,HKD,10.384
EUR,HUF,277.402
EUR,ILS,4.7253
EUR,JPY,108.441
EUR,LTL,3.4515
EUR,LVL,0.7066
EUR,NOK,7.7848
EUR,NZD,1.7187
EUR,PLN,3.9507
EUR,SEK,8.9628
EUR,SGD,1.7111
EUR,SKK,30.4964
EUR,TRY,2.0602
EUR,USD,1.336
EUR,ZAR,8.8048
GBP,ARS,6.1482
GBP,AUD,1.5236
GBP,BGN,2.2784
GBP,CAD,1.5468
GBP,CHF,1.4516
GBP,CLP,734.3
GBP,CNY,10.19
GBP,CRC,796.94
GBP,CZK,29.158
GBP,DKK,8.689
GBP,DOP,58.649
GBP,EEK,18.216
GBP,EGP,8.9207
GBP,EUR,1.165
GBP,GTQ,12.467
GBP,HKD,12.095
GBP,HNL,29.386
GBP,HTG,62.375
GBP,HUF,323.5
GBP,IDR,13751.0
GBP,ILS,5.5026
GBP,JPY,126.36
GBP,KRW,1747.9
GBP,LTL,4.0234
GBP,LVL,0.8238
GBP,MXN,19.194
GBP,MYR,4.7671
GBP,NGN,236.65
GBP,NIO,34.336
GBP,NZD,2.002
GBP,PEN,4.3644
GBP,PLN,4.6104
GBP,SEK,10.4512
GBP,SGD,1.9942
GBP,SKK,35.555
GBP,TRY,2.4012
GBP,USD,1.5568
GBP,XPF,135.82
GBP,ZAR,10.2545
GTQ,GBP,0.0802
HKD,ARS,0.508
HKD,AUD,0.126
HKD,CAD,0.1278
HKD,CHF,0.12
HKD,CNY,0.8423
HKD,DKK,0.7177
HKD,EUR,0.0963
HKD,GBP,0.0827
HKD,IDR,1136.9
HKD,JPY,10.441
HKD,KRW,144.51
HKD,MXN,1.5867
HKD,MYR,0.3941
HKD,NZD,0.1655
HKD,PLN,0.3807
HKD,SEK,0.8636
HKD,SGD,0.1648
HKD,THB,3.8298
HKD,USD,0.1286
HKD,ZAR,0.8472
HNL,GBP,0.034
HTG,GBP,0.016
HUF,CHF,0.0045
HUF,DKK,0.0267
HUF,EUR,0.0036
HUF,PLN,0.0142
IDR,CAD,1.1101
IDR,CHF,0.0104
IDR,CNY,0.0732
IDR,EUR,0.0083
IDR,GBP,0.0072
IDR,JPY,0.9068
IDR,MYR,0.0342
IDR,NZD,0.0144
IDR,THB,0.3326
IDR,TWD,0.3181
IDR,USD,0.011
IDR,ZAR,0.0737
ILS,AUD,0.2765
ILS,CAD,0.2805
ILS,CHF,0.2635
ILS,JOD,0.2
ILS,JPY,22.915
ILS,SEK,1.8971
INR,AUD,0.0218
INR,CAD,0.0221
INR,CHF,0.0208
INR,CNY,0.1456
INR,GBP,0.0143
INR,HKD,0.173
INR,JPY,1.804
INR,KRW,24.976
INR,MYR,0.0681
INR,NZD,0.0286
INR,SEK,0.1493
INR,THB,0.6619
INR,ZAR,0.1467
JOD,ILS,4.9915
JPY,ARS,0.0486
JPY,AUD,0.0121
JPY,CAD,0.0123
JPY,CNY,0.0807
JPY,CZK,0.2304
JPY,DKK,0.0687
JPY,EUR,0.0092
JPY,GBP,0.0079
JPY,HKD,0.0958
JPY,IDR,108.86
JPY,ILS,0.0436
JPY,KRW,13.8358
JPY,MXN,0.1519
JPY,MYR,0.0377
JPY,NOK,0.0718
JPY,NZD,0.0159
JPY,PLN,0.0364
JPY,RUB,0.3748
JPY,THB,0.3667
JPY,USD,0.0123
JPY,ZAR,0.0811
KRW,AUD,0.087
KRW,CAD,0.0884
KRW,CHF,0.083
KRW,CNY,0.5824
KRW,EUR,0.0666
KRW,GBP,0.0571
KRW,HKD,0.6913
KRW,IDR,7.8597
KRW,INR,3.9992
KRW,JPY,7.216
KRW,MYR,0.2724
KRW,NZD,0.1144
KRW,SEK,0.006
KRW,THB,2.6475
KRW,TWD,2.5322
KRW,USD,0.0889
KRW,ZAR,0.5863
MXN,ARS,0.3207
MXN,AUD,0.0793
MXN,CAD,0.0804
MXN,CHF,0.0754
MXN,CZK,1.5236
MXN,DKK,0.4521
MXN,EUR,0.0606
MXN,GBP,0.052
MXN,HKD,0.6292
MXN,JPY,6.567
MXN,SGD,0.1038
MXN,USD,0.0809
MXN,ZAR,0.533
MYR,AUD,0.3193
MYR,CAD,0.324
MYR,CHF,0.3045
MYR,CNY,2.1355
MYR,GBP,0.2096
MYR,HKD,2.5367
MYR,IDR,2882.1
MYR,JPY,26.469
MYR,NZD,0.4196
MYR,SGD,0.4181
MYR,THB,9.7082
MYR,USD,0.3258
MYR,ZAR,2.1508
NGN,GBP,0.0042
NGN,JPY,0.5337
NIO,GBP,0.0291
NOK,DKK,0.9554
NOK,EUR,0.1282
NOK,GBP,0.11
NOK,JPY,13.8915
NOK,SEK,1.1501
NOK,USD,0.1712
NOK,ZAR,1.1307
NZD,AUD,0.7603
NZD,CAD,0.7718
NZD,CHF,0.7244
NZD,CNY,5.0863
NZD,CZK,14.443
NZD,DKK,4.3358
NZD,EUR,0.5818
NZD,GBP,0.4989
NZD,HKD,6.042
NZD,HUF,161.45
NZD,IDR,6865.1
NZD,JPY,63.075
NZD,KRW,872.54
NZD,MYR,2.3799
NZD,PLN,2.3
NZD,SEK,5.2179
NZD,SGD,0.9955
NZD,THB,23.13
NZD,USD,0.7771
NZD,ZAR,5.1214
PEN,GBP,0.229
PHP,USD,0.023
PKR,ZAR,0.0765
PLN,DKK,1.876
PLN,EUR,0.2517
PLN,HUF,70.055
PLN,JPY,27.339
QAR,ZAR,1.8221
RUB,JPY,2.6592
SEK,AUD,0.1457
SEK,CAD,0.1478
SEK,CZK,2.7923
SEK,DKK,0.83
SEK,EUR,0.1114
SEK,GBP,0.0955
SEK,ILS,0.5259
SEK,JPY,12.0787
SEK,NOK,0.8678
SEK,ZAR,0.9822
SGD,ARS,3.0788
SGD,AUD,0.7629
SGD,CAD,0.7743
SGD,CHF,0.7279
SGD,CNY,5.1041
SGD,DKK,4.3517
SGD,EUR,0.5838
SGD,GBP,0.5005
SGD,HKD,6.0631
SGD,IDR,6889.1
SGD,JPY,63.284
SGD,KRW,875.5
SGD,MXN,9.6117
SGD,MYR,2.3883
SGD,NZD,1.003
SGD,PLN,2.3061
SGD,SEK,5.2357
SGD,TWD,22.771
SGD,USD,0.7791
SGD,ZAR,5.1341
THB,AUD,0.0327
THB,CAD,0.0332
THB,CHF,0.0311
THB,CNY,0.2185
THB,EUR,0.0248
THB,GBP,0.0215
THB,HKD,0.2595
THB,IDR,294.84
THB,JPY,2.7078
THB,KRW,37.475
THB,MYR,0.1022
THB,NZD,0.0427
THB,SGD,0.0428
THB,USD,0.0332
THB,ZAR,0.22
TRY,CHF,0.6029
TRY,DKK,3.6061
TRY,JPY,52.32
TRY,ZAR,4.2592
TWD,AUD,0.0335
TWD,CAD,0.034
TWD,CHF,0.032
TWD,CNY,0.2241
TWD,GBP,0.022
TWD,HKD,0.2662
TWD,IDR,302.43
TWD,JPY,2.778
TWD,KRW,38.44
TWD,MYR,0.1048
TWD,NZD,0.0441
TWD,SEK,0.2298
TWD,SGD,0.0439
TWD,THB,1.0187
TWD,USD,0.0342
TWD,ZAR,0.2257
TZS,ZAR,0.0044
USD,ARS,3.9495
USD,AUD,0.979
USD,BGN,1.464
USD,CAD,0.9931
USD,CHF,0.9328
USD,CZK,18.6952
USD,DKK,5.5791
USD,EEK,11.7
USD,EGP,5.7323
USD,EUR,0.7492
USD,GBP,0.6425
USD,HKD,7.7728
USD,HRK,5.5105
USD,HUF,207.61
USD,ILS,3.5365
USD,JPY,81.154
USD,KRW,1123.41
USD,LTL,2.5836
USD,LVL,0.5295
USD,MXN,12.3398
USD,MYR,3.0632
USD,NOK,5.8277
USD,NZD,1.2861
USD,PLN,2.958
USD,RUB,30.425
USD,SEK,6.7086
USD,SGD,1.2816
USD,SKK,22.84
USD,THB,29.7614
USD,TRY,1.5415
USD,ZAR,6.5797
XAG,AUD,30.19
XAG,CAD,30.6307
XAG,CHF,28.7949
XAG,EUR,23.07
XAG,GBP,19.8
XAG,INR,1382.73
XAG,TRY,47.5615
XAG,USD,30.853
XAG,ZAR,203.51
XAU,AUD,1387.0
XAU,CAD,1407.76
XAU,CHF,1322.51
XAU,EUR,1060.7
XAU,GBP,910.2
XAU,INR,63558.1
XAU,TRY,2186.21
XAU,USD,1417.18
XAU,ZAR,9356.2
XPF,GBP,0.007
ZAR,AED,0.5545
ZAR,AUD,0.1482
ZAR,BWP,0.9779
ZAR,CAD,0.1504
ZAR,CHF,0.1413
ZAR,CNY,0.9915
ZAR,CYP,0.0662
ZAR,DKK,0.8423
ZAR,EUR,0.1132
ZAR,GBP,0.0973
ZAR,HKD,1.1758
ZAR,IDR,1338.2
ZAR,KRW,170.0066
ZAR,MYR,0.46
ZAR,NOK,0.8804
ZAR,NZD,0.1948
ZAR,PHP,6.575
ZAR,PKR,13.012
ZAR,SEK,1.0135
ZAR,SGD,0.1937
ZAR,THB,4.5075
ZAR,TRY,0.2332
ZAR,USD,0.151
ZMK,ZAR,0.0014
AED,AUD,0.2669
AED,CAD,0.2701
AED,CHF,0.2548
AED,DKK,1.5209
AED,EUR,0.2041
AED,GBP,0.1759
AED,INR,12.145
AED,JPY,22.177
AED,NZD,0.3502
AED,PKR,23.305
AED,USD,0.2722
AED,ZAR,1.7997
ALL,GBP,0.0061
ARS,AUD,0.247
ARS,BRL,0.414
ARS,CAD,0.2493
ARS,CHF,0.2346
ARS,EUR,0.1881
ARS,GBP,0.1622
ARS,HKD,1.9515
ARS,JPY,20.51
ARS,MXN,3.0814
ARS,SGD,0.3227
ARS,USD,0.2511
AUD,ARS,4.0405
AUD,BRL,1.6793
AUD,CAD,1.0088
AUD,CHF,0.949
AUD,CNY,6.6907
AUD,CZK,19.054
AUD,DKK,5.6727
AUD,EUR,0.7611
AUD,FJD,1.8785
AUD,GBP,0.6563
AUD,HKD,7.9008
AUD,HUF,211.37
AUD,IDR,9110.7
AUD,ILS,3.5896
AUD,INR,45.428
AUD,JPY,83.019
AUD,KRW,1143.47
AUD,MXN,12.4376
AUD,MYR,3.116
AUD,NOK,5.9211
AUD,NZD,1.3134
AUD,PKR,87.721
AUD,PLN,3.0025
AUD,SEK,6.8107
AUD,SGD,1.306
AUD,THB,30.415
AUD,TWD,29.03
AUD,USD,1.0167
AUD,ZAR,6.728
BDT,GBP,0.0089
BDT,JPY,1.1293
BGN,CNY,4.4953
BGN,DKK,3.7963
BHD,EUR,1.9793
BHD,PKR,227.04
BND,GBP,0.4935
BRL,ARS,2.4114
BRL,AUD,0.5922
BRL,CAD,0.5986
BRL,CHF,0.5647
BRL,EUR,0.4527
BRL,HKD,4.6962
BRL,JPY,49.326
BRL,MXN,7.4222
BRL,RUB,18.506
BRL,SEK,4.0504
BRL,SGD,0.7754
BRL,USD,0.5832
BRL,ZAR,4.0161
BWP,CHF,0.1411
BWP,EUR,0.1135
BWP,GBP,0.0971
BWP,USD,0.1522
BWP,ZAR,0.9972
CAD,AED,3.6988
CAD,ARS,4.0044
CAD,AUD,0.9907
CAD,BRL,1.6631
CAD,CHF,0.9405
CAD,CNY,6.6393
CAD,DKK,5.614
CAD,EUR,0.754
CAD,GBP,0.6505
CAD,HKD,7.8274
CAD,IDR,9029.6
CAD,ILS,3.5581
CAD,INR,44.955
CAD,JPY,82.24
CAD,KRW,1131.7393
CAD,KWD,0.2831
CAD,MXN,12.331
CAD,MYR,3.0882
CAD,NOK,5.8672
CAD,NZD,1.3015
CAD,PKR,86.16
CAD,SEK,6.7377
CAD,SGD,1.2947
CAD,THB,30.143
CAD,TWD,28.599
CAD,USD,1.0069
CAD,ZAR,6.6651
CHF,AED,3.9239
CHF,ARS,4.2558
CHF,AUD,1.0524
CHF,BGN,1.5671
CHF,BRL,1.7637
CHF,BWP,6.8293
CHF,CAD,1.0623
CHF,CNY,7.0482
CHF,CZK,20.061
CHF,DKK,5.9709
CHF,EUR,0.8015
CHF,GBP,0.6914
CHF,HKD,8.3185
CHF,HUF,222.531
CHF,IDR,9597.6
CHF,ILS,3.7816
CHF,INR,47.759
CHF,ISK,122.87
CHF,JPY,87.42
CHF,KRW,1204.53
CHF,LVL,0.5682
CHF,MXN,13.104
CHF,MYR,3.2821
CHF,NOK,6.2372
CHF,NZD,1.383
CHF,PLN,3.1616
CHF,SEK,7.1705
CHF,SGD,1.3744
CHF,SZL,6.9843
CHF,THB,32.037
CHF,TRY,1.6644
CHF,TWD,30.535
CHF,USD,1.07
CHF,ZAR,7.0826
CLP,GBP,0.0014
CNY,AUD,0.1485
CNY,BGN,0.2215
CNY,CAD,0.1504
CNY,CHF,0.1418
CNY,DKK,0.8441
CNY,EUR,0.1132
CNY,GBP,0.0979
CNY,HKD,1.1775
CNY,JPY,12.348
CNY,NZD,0.1949
CNY,USD,0.1515
CNY,ZAR,1.0032
COP,DKK,0.0028
CRC,GBP,0.0013
CYP,ZAR,15.094
CZK,DKK,0.2973
CZK,EUR,0.0399
CZK,JPY,4.3515
CZK,MXN,0.6534
CZK,NOK,0.3107
CZK,SEK,0.3572
DJF,GBP,0.0036
DKK,AED,0.6568
DKK,BGN,0.2614
DKK,BRL,0.3614
DKK,CHF,16.685
DKK,CNY,1.1794
DKK,COP,338.73
DKK,CZK,3.355
DKK,EEK,2.0965
DKK,EUR,0.1342
DKK,GBP,0.1156
DKK,HKD,1.3917
DKK,HUF,37.244
DKK,INR,7.9922
DKK,ISK,20.583
DKK,JPY,14.6268
DKK,LVL,0.0951
DKK,MXN,2.1931
DKK,MYR,0.5492
DKK,NOK,1.0429
DKK,NZD,0.2314
DKK,PHP,7.8037
DKK,PLN,0.5292
DKK,SEK,1.1987
DKK,SGD,0.2299
DKK,TRY,0.2785
DKK,TWD,5.0955
DKK,UAH,1.4113
DKK,USD,0.179
DKK,ZAR,1.1853
DOP,GBP,0.0173
EEK,DKK,0.4759
EEK,LVL,0.0453
EGP,JPY,13.962
EGP,PKR,14.784
ETB,GBP,0.0382
EUR,AED,4.906
EUR,AFN,56.58
EUR,ALL,136.32
EUR,ARS,5.2991
EUR,AUD,1.3128
EUR,BAM,1.9458
EUR,BBD,2.6257
EUR,BDT,92.612
EUR,BGN,1.9482
EUR,BHD,0.5005
EUR,BIF,1604.84
EUR,BND,1.6908
EUR,BOB,9.1785
EUR,BRL,2.2012
EUR,BSD,1.3309
EUR,BWP,8.4801
EUR,BYR,3962.0
EUR,BZD,2.5922
EUR,CAD,1.3245
EUR,CHF,1.2471
EUR,CLP,611.81
EUR,CNY,8.7666
EUR,COP,2522.0
EUR,CRC,665.11
EUR,CUP,1.307
EUR,CVE,108.26
EUR,CZK,25.0228
EUR,DJF,230.69
EUR,DKK,7.4526
EUR,DOP,49.197
EUR,DZD,97.37
EUR,EEK,15.7502
EUR,EGP,7.678
EUR,ETB,21.9936
EUR,FJD,2.4321
EUR,GBP,0.8619
EUR,GHS,1.9631
EUR,GMD,36.754
EUR,GNF,9359.9
EUR,GTQ,10.523
EUR,HKD,10.3712
EUR,HNL,24.779
EUR,HRK,7.3836
EUR,HTG,52.18
EUR,HUF,277.605
EUR,IDR,11826.72
EUR,ILS,4.7205
EUR,INR,59.5842
EUR,IQD,1534.65
EUR,IRR,13604.758
EUR,ISK,153.394
EUR,JMD,112.228
EUR,JOD,0.9267
EUR,JPY,109.031
EUR,KES,102.87
EUR,KHR,5304.1
EUR,KRW,1501.5
EUR,KWD,0.375
EUR,KYD,1.0837
EUR,KZT,194.16
EUR,LAK,10527.0
EUR,LBP,1970.5
EUR,LKR,147.76
EUR,LSL,8.6496
EUR,LTL,3.4521
EUR,LVL,0.7075
EUR,LYD,1.6412
EUR,MAD,11.047
EUR,MDL,15.952
EUR,MKD,61.783
EUR,MMK,8.439
EUR,MOP,10.5243
EUR,MRO,371.62
EUR,MUR,39.58
EUR,MVR,16.847
EUR,MWK,198.667
EUR,MXN,16.239
EUR,MYR,4.0941
EUR,NAD,8.6502
EUR,NGN,200.4
EUR,NIO,28.75
EUR,NOK,7.7774
EUR,NPR,93.903
EUR,NZD,1.7248
EUR,OMR,0.5113
EUR,PAB,1.3125
EUR,PEN,3.6748
EUR,PGK,3.2781
EUR,PHP,58.161
EUR,PKR,114.691
EUR,PLN,3.9461
EUR,PYG,6084.4
EUR,QAR,4.858
EUR,RON,4.2629
EUR,RSD,105.91
EUR,RUB,40.843
EUR,RWF,777.34
EUR,SAR,4.9967
EUR,SCR,14.695
EUR,SDD,312.37
EUR,SEK,8.9433
EUR,SGD,1.7155
EUR,SKK,30.4902
EUR,SOS,2101.0
EUR,STD,24382.7
EUR,SVC,11.46
EUR,SYP,61.278
EUR,SZL,8.6874
EUR,THB,39.832
EUR,TND,1.9068
EUR,TRY,2.0762
EUR,TTD,8.3455
EUR,TWD,37.98
EUR,TZS,1982.41
EUR,UAH,10.5196
EUR,UGX,3044.9
EUR,USD,1.3349
EUR,UYU,26.023
EUR,UZS,2159.17
EUR,VEF,5.7357
EUR,VND,25685.0
EUR,XAF,642.957
EUR,XOF,642.957
EUR,XPF,116.86
EUR,ZAR,8.8318
EUR,ZMK,6318.7
FJD,GBP,0.3475
GBP,AED,5.6817
GBP,ALL,158.83
GBP,ARS,6.1569
GBP,AUD,1.5226
GBP,BDT,107.9
GBP,BGN,2.2675
GBP,BHD,0.5838
GBP,BIF,1904.286
GBP,BND,1.9887
GBP,BRL,2.5514
GBP,BWP,9.991
GBP,CAD,1.5377
GBP,CHF,1.4465
GBP,CLP,721.3838
GBP,CNY,10.194
GBP,COP,2965.5771
GBP,CRC,787.3139
GBP,CZK,29.015
GBP,DJF,277.5768
GBP,DKK,8.6431
GBP,DOP,57.864
GBP,DZD,114.1797
GBP,EEK,18.2587
GBP,EGP,8.9449
GBP,ETB,25.7521
GBP,EUR,1.1596
GBP,FJD,2.8149
GBP,GMD,44.1237
GBP,GTQ,12.4088
GBP,HKD,12.0287
GBP,HNL,29.2919
GBP,HRK,8.5547
GBP,HTG,62.315
GBP,HUF,321.9
GBP,IDR,13882.0
GBP,ILS,5.4899
GBP,INR,69.1658
GBP,IQD,1811.3939
GBP,IRR,16027.7402
GBP,ISK,178.7706
GBP,JMD,131.8758
GBP,JOD,1.0957
GBP,JPY,126.5421
GBP,KES,125.172
GBP,KRW,1740.3315
GBP,KWD,0.4358
GBP,KZT,228.1582
GBP,LBP,2323.8481
GBP,LKR,171.9276
GBP,LTL,4.006
GBP,LVL,0.8205
GBP,MAD,12.9341
GBP,MUR,47.6846
GBP,MWK,231.8429
GBP,MXN,18.9705
GBP,MYR,4.7465
GBP,NGN,235.7909
GBP,NIO,33.8824
GBP,NZD,2.0006
GBP,OMR,0.5962
GBP,PEN,4.3403
GBP,PGK,4.016
GBP,PHP,67.6641
GBP,PKR,132.7581
GBP,PLN,4.5734
GBP,QAR,5.637
GBP,RON,4.9468
GBP,RUB,47.4523
GBP,SAR,5.8061
GBP,SCR,19.097
GBP,SEK,10.3839
GBP,SGD,1.99
GBP,SKK,33.3993
GBP,SZL,10.1949
GBP,THB,46.5699
GBP,TND,2.2294
GBP,TRY,2.4105
GBP,TTD,9.893
GBP,TWD,45.0217
GBP,TZS,2315.333
GBP,UAH,12.3392
GBP,UGX,3576.342
GBP,USD,1.5482
GBP,VND,30189.8984
GBP,XAF,760.1157
GBP,XPF,138.9509
GBP,ZAR,10.2468
GBP,ZMK,7439.1011
GHS,EUR,0.5042
GHS,USD,0.6734
GMD,GBP,0.0227
GTQ,GBP,0.0806
HKD,ARS,0.5114
HKD,AUD,0.1267
HKD,BRL,0.2121
HKD,CAD,0.1277
HKD,CHF,0.1202
HKD,CNY,0.8488
HKD,DKK,0.7185
HKD,EUR,0.0964
HKD,GBP,0.0831
HKD,IDR,1156.4451
HKD,INR,5.75
HKD,JPY,10.52
HKD,KRW,144.6811
HKD,MXN,1.5771
HKD,MYR,0.3937
HKD,NZD,0.1663
HKD,PKR,11.0367
HKD,PLN,0.3807
HKD,SEK,0.8633
HKD,SGD,0.1653
HKD,THB,3.8715
HKD,TWD,3.7428
HKD,USD,0.1287
HKD,ZAR,0.8519
HNL,GBP,0.0341
HTG,GBP,0.016
HUF,CHF,0.0045
HUF,DKK,0.0267
HUF,EUR,0.0036
HUF,PLN,0.0142
IDR,AUD,0.011
IDR,CAD,1.1101
IDR,CHF,0.0001
IDR,CNY,0.0007
IDR,EUR,0.0001
IDR,GBP,0.0001
IDR,HKD,0.0009
IDR,INR,0.005
IDR,JPY,0.9107
IDR,KRW,0.1251
IDR,MYR,0.0003
IDR,NZD,0.0001
IDR,SGD,0.0001
IDR,THB,0.0033
IDR,TWD,0.0032
IDR,USD,0.0001
IDR,ZAR,0.0007
ILS,AUD,0.2776
ILS,CAD,0.2805
ILS,CHF,0.264
ILS,JOD,0.1996
ILS,JPY,23.084
ILS,SEK,1.8915
INR,AUD,0.022
INR,CAD,0.0222
INR,CHF,0.0209
INR,CNY,0.1476
INR,EUR,0.0168
INR,GBP,0.0145
INR,HKD,0.1739
INR,JPY,1.8295
INR,KRW,25.1617
INR,MYR,0.0685
INR,NZD,0.0289
INR,PKR,1.9194
INR,SEK,0.1501
INR,THB,0.6733
INR,TWD,0.6509
INR,USD,0.0224
INR,ZAR,0.1481
IQD,GBP,0.0006
IRR,JPY,0.0079
ISK,CHF,0.0081
ISK,DKK,0.0483
ISK,GBP,0.0056
ISK,SEK,0.0581
JMD,GBP,0.0076
JOD,ILS,5.0102
JPY,AED,0.0449
JPY,ARS,0.0486
JPY,AUD,0.012
JPY,BRL,0.0202
JPY,CAD,0.0121
JPY,CHF,1.14
JPY,CNY,0.0807
JPY,CZK,0.2294
JPY,DKK,0.0683
JPY,EUR,0.0091
JPY,GBP,0.0079
JPY,HKD,0.0951
JPY,IDR,109.9284
JPY,ILS,0.0434
JPY,INR,0.5466
JPY,KRW,13.7696
JPY,LVL,0.0065
JPY,MXN,0.1499
JPY,MYR,0.0374
JPY,NOK,0.0713
JPY,NZD,0.0158
JPY,PKR,1.0556
JPY,PLN,0.0362
JPY,RUB,0.375
JPY,SEK,0.0821
JPY,THB,0.3663
JPY,TWD,0.3558
JPY,USD,0.0122
JPY,ZAR,0.081
KRW,AUD,0.0009
KRW,CAD,0.0009
KRW,CHF,0.0008
KRW,CNY,0.0059
KRW,EUR,0.0007
KRW,GBP,0.0006
KRW,HKD,0.0069
KRW,IDR,7.9931
KRW,INR,0.0397
KRW,JPY,0.0727
KRW,MYR,0.0027
KRW,NZD,0.0011
KRW,SEK,0.006
KRW,SGD,0.0011
KRW,THB,0.0268
KRW,TWD,0.0259
KRW,USD,0.0888
KRW,ZAR,0.0059
KWD,GBP,2.2945
KWD,PKR,304.6181
KZT,GBP,0.0044
LTL,LVL,0.2048
MAD,GBP,0.0773
MUR,GBP,0.021
MWK,GBP,0.0043
MXN,ARS,0.3243
MXN,AUD,0.0803
MXN,BRL,0.1345
MXN,CAD,0.0811
MXN,CHF,0.0762
MXN,CZK,1.5277
MXN,DKK,0.4556
MXN,EUR,0.0611
MXN,GBP,0.0527
MXN,HKD,0.6341
MXN,JPY,6.6705
MXN,SGD,0.1048
MXN,USD,0.0816
MXN,ZAR,0.5401
MYR,AUD,0.3205
MYR,CAD,0.3234
MYR,CHF,0.3053
MYR,CNY,2.1559
MYR,DKK,1.8252
MYR,EUR,0.2448
MYR,GBP,0.2104
MYR,HKD,2.5401
MYR,IDR,2937.4746
MYR,INR,14.6056
MYR,JPY,26.7217
MYR,KRW,367.5031
MYR,NZD,0.4225
MYR,PKR,28.0343
MYR,SGD,0.4199
MYR,THB,9.8341
MYR,TWD,9.5072
MYR,USD,0.3269
MYR,ZAR,2.1557
NGN,GBP,0.0042
NGN,JPY,0.5369
NIO,GBP,0.0295
NOK,CHF,15.996
NOK,DKK,0.9561
NOK,EUR,0.1283
NOK,GBP,0.1107
NOK,INR,7.6482
NOK,JPY,13.9426
NOK,LVL,0.091
NOK,SEK,1.1484
NOK,USD,0.1714
NOK,ZAR,1.1353
NZD,AED,2.8502
NZD,AUD,0.7609
NZD,CAD,0.7676
NZD,CHF,0.7223
NZD,CNY,5.0927
NZD,CZK,14.405
NZD,DKK,4.3163
NZD,EUR,0.5788
NZD,GBP,0.4994
NZD,HKD,6.0102
NZD,HUF,160.79
NZD,IDR,6934.7
NZD,INR,34.566
NZD,JPY,63.118
NZD,KRW,870.37
NZD,MYR,2.3716
NZD,PKR,66.81
NZD,PLN,2.2849
NZD,SEK,5.1828
NZD,SGD,0.9935
NZD,THB,23.149
NZD,TWD,22.155
NZD,USD,0.7732
NZD,ZAR,5.1206
OMR,GBP,1.6712
OMR,PKR,222.39
PEN,GBP,0.2306
PGK,GBP,0.2496
PHP,DKK,0.1272
PHP,GBP,0.0147
PHP,JPY,1.8556
PHP,USD,0.0228
PKR,GBP,0.0075
PKR,JPY,0.9451
PKR,ZAR,0.0768
PLN,DKK,1.8838
PLN,EUR,0.2528
PLN,HUF,70.339
PLN,JPY,27.588
PLN,NOK,1.9704
PLN,SEK,2.2636
QAR,GBP,0.1774
QAR,PKR,23.51
QAR,ZAR,1.8148
RON,GBP,0.201
RUB,GBP,0.0211
RUB,JPY,2.6667
RUB,LVL,0.017
RUB,USD,0.0327
SAR,PKR,22.833
SCR,GBP,0.0473
SEK,AUD,0.1465
SEK,CAD,0.1479
SEK,CHF,13.87
SEK,CZK,2.7965
SEK,DKK,0.8319
SEK,EUR,0.1117
SEK,GBP,0.0963
SEK,ILS,0.5267
SEK,INR,6.6525
SEK,ISK,17.121
SEK,JPY,12.1679
SEK,LVL,0.0792
SEK,NOK,0.8694
SEK,ZAR,0.9871
SGD,ARS,3.0932
SGD,AUD,0.7655
SGD,BRL,1.2827
SGD,CAD,0.7723
SGD,CHF,0.7272
SGD,CNY,5.1229
SGD,DKK,4.3422
SGD,EUR,0.5826
SGD,GBP,0.5024
SGD,HKD,6.049
SGD,IDR,6976.3
SGD,INR,34.704
SGD,JPY,63.485
SGD,KRW,875.55
SGD,MXN,9.5234
SGD,MYR,2.3855
SGD,NZD,1.0055
SGD,PKR,66.807
SGD,PLN,2.2987
SGD,SEK,5.2143
SGD,THB,23.374
SGD,TWD,22.567
SGD,USD,0.7778
SGD,ZAR,5.1396
SZL,CHF,0.1369
SZL,EUR,0.1101
SZL,GBP,0.0944
SZL,USD,0.1473
THB,AUD,0.0327
THB,CAD,0.0329
THB,CHF,0.031
THB,CNY,0.2185
THB,EUR,0.0247
THB,GBP,0.0214
THB,HKD,0.2579
THB,IDR,297.52
THB,INR,1.4814
THB,JPY,2.7103
THB,KRW,37.34
THB,MYR,0.1018
THB,NZD,0.0429
THB,PKR,2.8558
THB,SGD,0.0426
THB,TWD,0.9494
THB,USD,0.033
THB,ZAR,0.2196
TND,GBP,0.4479
TRY,CHF,0.5993
TRY,DKK,3.5807
TRY,JPY,52.322
TRY,ZAR,4.2439
TTD,GBP,0.0993
TWD,AUD,0.0339
TWD,CAD,0.0342
TWD,CHF,0.0322
TWD,CNY,0.2268
TWD,DKK,0.1864
TWD,GBP,0.0223
TWD,HKD,0.2678
TWD,IDR,308.93
TWD,INR,1.5376
TWD,JPY,2.814
TWD,KRW,38.6554
TWD,MYR,0.1057
TWD,NZD,0.0444
TWD,PKR,2.9295
TWD,SEK,0.2308
TWD,SGD,0.0443
TWD,THB,1.0312
TWD,USD,0.0345
TWD,ZAR,0.228
TZS,ZAR,0.0044
UAH,DKK,0.6902
USD,AED,3.6723
USD,ALL,101.844
USD,AMD,363.44
USD,ARS,3.9757
USD,AUD,0.9838
USD,BDT,69.191
USD,BGN,1.4646
USD,BHD,0.3754
USD,BIF,1209.2
USD,BMD,1.0
USD,BND,1.2739
USD,BOB,6.8574
USD,BRL,1.6495
USD,BWP,6.3332
USD,BZD,1.9368
USD,CAD,0.9925
USD,CHF,0.9343
USD,CLP,461.28
USD,CNY,6.5805
USD,COP,1888.9
USD,CRC,501.14
USD,CUP,0.9769
USD,CVE,80.984
USD,CZK,18.6814
USD,DJF,172.59
USD,DKK,5.5806
USD,DOP,37.068
USD,DZD,72.549
USD,EEK,11.7935
USD,EGP,5.7777
USD,ETB,16.432
USD,EUR,0.749
USD,FJD,1.836
USD,GBP,0.6459
USD,GEL,1.765
USD,GHS,1.4676
USD,GMD,27.45
USD,GNF,7034.2
USD,GTQ,7.8624
USD,HKD,7.7709
USD,HNL,18.513
USD,HRK,5.5122
USD,HTG,39.316
USD,HUF,207.7
USD,IDR,8892.0
USD,ILS,3.5325
USD,INR,44.6545
USD,IQD,1148.0
USD,IRR,10257.5
USD,ISK,115.004
USD,JOD,0.7035
USD,JPY,81.64
USD,KES,79.253
USD,KHR,4002.0
USD,KMF,368.0
USD,KRW,1125.16
USD,KWD,0.2798
USD,KZT,145.07
USD,LAK,7892.74
USD,LBP,1483.9
USD,LKR,110.8
USD,LSL,6.482
USD,LTL,2.5849
USD,LVL,0.53
USD,LYD,1.2291
USD,MAD,8.3237
USD,MDL,11.919
USD,MKD,46.265
USD,MMK,6.3051
USD,MOP,7.863
USD,MRO,277.88
USD,MUR,29.551
USD,MVR,12.62
USD,MWK,148.48
USD,MXN,12.2413
USD,MYR,3.0661
USD,NAD,6.4824
USD,NGN,149.85
USD,NIO,21.679
USD,NOK,5.8262
USD,NPR,70.155
USD,NZD,1.2924
USD,OMR,0.3835
USD,PAB,0.9806
USD,PEN,2.7557
USD,PGK,2.4699
USD,PHP,43.635
USD,PKR,84.4135
USD,PLN,2.9527
USD,PYG,4545.7
USD,QAR,3.6384
USD,RON,3.1936
USD,RSD,79.018
USD,RUB,30.65
USD,RWF,581.37
USD,SAR,3.7454
USD,SCR,11.0322
USD,SDD,248.67
USD,SEK,6.6992
USD,SGD,1.2853
USD,SKK,22.839
USD,SOS,1568.4
USD,STD,18252.0
USD,SVC,8.5648
USD,SYP,46.17
USD,SZL,6.5066
USD,THB,29.9264
USD,TND,1.4237
USD,TRY,1.5546
USD,TWD,29.165
USD,TZS,1481.0
USD,UAH,7.859
USD,UYU,19.443
USD,UZS,1613.2
USD,VEF,4.2898
USD,VND,19380.08
USD,XAF,480.36
USD,XOF,480.36
USD,XPF,87.44
USD,YER,213.06
USD,ZAR,6.6069
USD,ZMK,4720.8
VEF,EUR,0.174
VEF,USD,0.2325
VND,JPY,0.0041
VND,XAF,0.0247
XAG,AUD,30.2
XAG,CAD,30.4863
XAG,CHF,28.694
XAG,EUR,22.99
XAG,GBP,19.82
XAG,INR,1367.99
XAG,TRY,47.7459
XAG,USD,30.713
XAG,ZAR,203.21
XAU,AUD,1392.9
XAU,CAD,1406.22
XAU,CHF,1323.52
XAU,EUR,1060.87
XAU,GBP,914.6
XAU,INR,63131.8
XAU,TRY,2203.6
XAU,USD,1416.68
XAU,ZAR,9374.2
XPD,EUR,586.02
XPD,USD,785.0
XPF,GBP,0.0072
XPT,EUR,1319.84
XPT,USD,1763.0
ZAR,AED,0.553
ZAR,AUD,0.1484
ZAR,BWP,0.975
ZAR,CAD,0.1498
ZAR,CHF,0.141
ZAR,CNY,0.9937
ZAR,CYP,0.0661
ZAR,DKK,0.8404
ZAR,EUR,0.1129
ZAR,GBP,0.0975
ZAR,HKD,1.1727
ZAR,IDR,1353.0
ZAR,INR,6.7321
ZAR,JPY,12.329
ZAR,KRW,169.7868
ZAR,MYR,0.46
ZAR,NOK,0.8778
ZAR,NZD,0.195
ZAR,PHP,6.6116
ZAR,PKR,12.983
ZAR,SEK,1.0093
ZAR,SGD,0.1938
ZAR,THB,4.5169
ZAR,TRY,0.2344
ZAR,TWD,4.2921
ZAR,USD,0.1505
ZMK,ZAR,0.0014
